Fri Oct 18 17:20:36 CEST 2024
Preloading tcmalloc_minimal.so
Preloading libexcabort.so
ApplicationMgr    SUCCESS 
====================================================================================================================================
                                                   Welcome to ApplicationMgr (GaudiCoreSvc v39r0)
                                          running on lxplus973.cern.ch on Fri Oct 18 17:20:45 2024
====================================================================================================================================
ApplicationMgr       INFO Application Manager Configured successfully
Py:ComponentAccumulator    INFO Athena job with pid 2382851
CoreDumpSvc          INFO Handling signals: 11(Segmentation fault) 7(Bus error) 4(Illegal instruction) 8(Floating point exception) 14(Alarm clock) 
AthenaEventLoopMgr   INFO Initializing AthenaEventLoopMgr
ClassIDSvc           INFO getRegistryEntries: read 3903 CLIDRegistry entries for module ALL
ClassIDSvc           INFO getRegistryEntries: read 2535 CLIDRegistry entries for module ALL
EventInfoCnvAlg      INFO Initializing EventInfoCnvAlg
EventI...foCnvTool   INFO Beam spot information not available
EventI...foCnvTool   INFO Will not fill beam spot information into xAOD::EventInfo
ClassIDSvc           INFO getRegistryEntries: read 430 CLIDRegistry entries for module ALL
PyComponentMgr       INFO Initializing PyComponentMgr...
LoadWriteDicts       INFO Initializing LoadWriteDicts...
ClassIDSvc           INFO getRegistryEntries: read 8615 CLIDRegistry entries for module ALL
ClassIDSvc           INFO getRegistryEntries: read 348 CLIDRegistry entries for module ALL
DecisionSvc          INFO Inserting stream: StreamThinned1 with no Algs
AthDictLoaderSvc     INFO in initialize...
AthDictLoaderSvc     INFO acquired Dso-registry
Stream...nned1Tool   INFO Initializing StreamThinned1.StreamThinned1Tool
PoolSvc              INFO Set connectionsvc retry/timeout/IDLE timeout to  'ConnectionRetrialPeriod':300/ 'ConnectionRetrialTimeOut':3600/ 'ConnectionTimeOut':5 seconds with connection cleanup disabled
PoolSvc              INFO Frontier compression level set to 5
DBReplicaSvc         INFO Frontier server at (serverurl=http://atlasfrontier-local.cern.ch:8000/atlr)(serverurl=http://atlasfrontier-ai.cern.ch:8000/atlr)(proxyurl=http://ca-proxy-atlas.cern.ch:3128)(proxyurl=http://ca-proxy-meyrin.cern.ch:3128)(proxyurl=http://ca-proxy.cern.ch:3128)(proxyurl=http://atlasbpfrontier.cern.ch:3127) will be considered for COOL data
DBReplicaSvc         INFO Read replica configuration from /cvmfs/atlas-nightlies.cern.ch/repo/sw/main--dev3LCG_Athena_x86_64-el9-gcc14-opt/2024-10-13T1100/Athena/25.0.20/InstallArea/x86_64-el9-gcc14-opt/share/dbreplica.config
DBReplicaSvc         INFO Total of 10 servers found for host lxplus973.cern.ch [ATLF ATLAS_COOLPROD atlas_dd ATLAS_CONFIG INT8R INTR ATONR_COOL ATONR_CONF DEVDB11 ATLF ]
PoolSvc              INFO Successfully setup replica sorting algorithm
PoolSvc              INFO Setting up APR FileCatalog and Streams
PoolSvc              INFO POOL WriteCatalog is file:xAODTestWriteThinned_rntup_catalog.xml
DbSession            INFO     Open     DbSession    
Domain[ROOT_All]     INFO >   Access   DbDomain     READ      [ROOT_All] 
MetaDataSvc          INFO Initializing MetaDataSvc
MetaDataSvc          INFO Found MetaDataTools = PublicToolHandleArray([])
StreamThinned1       INFO Found HelperTools = PrivateToolHandleArray(['xAODMaker::EventFormatStreamHelperTool/Thinned1_EventFormatStreamHelperTool','Athena::ThinningCacheTool/ThinningCacheTool_StreamThinned1'])
StreamThinned1       INFO Data output: xaodthinned1.rntup.root
StreamThinned1       INFO I/O reinitialization...
ClassIDSvc           INFO getRegistryEntries: read 528 CLIDRegistry entries for module ALL
ClassIDSvc           INFO getRegistryEntries: read 14 CLIDRegistry entries for module ALL
ClassIDSvc           INFO getRegistryEntries: read 3 CLIDRegistry entries for module ALL
ClassIDSvc           INFO getRegistryEntries: read 15 CLIDRegistry entries for module ALL
EventSelector        INFO  Enter McEventSelector Initialization 
AthenaEventLoopMgr   INFO Setup EventSelector service EventSelector
ApplicationMgr       INFO Application Manager Initialized successfully
ApplicationMgr       INFO Application Manager Started successfully
EventP...stencySvc   INFO Added successfully Conversion service McCnvSvc
AthenaEventLoopMgr   INFO   ===>>>  start of run 0    <<<===
AthenaEventLoopMgr   INFO   ===>>>  start processing event #1, run #0 0 events processed so far  <<<===
ClassIDSvc           INFO getRegistryEntries: read 134 CLIDRegistry entries for module ALL
DbSession            INFO     Open     DbSession    
Domain[ROOT_All]     INFO >   Access   DbDomain     UPDATE    [ROOT_All] 
Domain[ROOT_All]     INFO ->  Access   DbDatabase   CREATE    [ROOT_All] 5604AD27-072C-0E4F-AF43-59156BD2ECA8
Domain[ROOT_All]     INFO                           xaodthinned1.rntup.root
RootDatabase.open    INFO xaodthinned1.rntup.root File version:63301
StorageSvc           INFO Building shape according to reflection information using shape ID for:
StorageSvc           INFO DMTest::CAuxContainer_v1 [2A4C8577-05E9-4246-96EC-97ED64FF9C5B]
StorageSvc           INFO Building shape according to reflection information using shape ID for:
StorageSvc           INFO DMTest::JVecAuxContainer_v1 [C4E35F44-0C89-11EF-9321-E0C2649C5CE8]
StorageSvc           INFO Building shape according to reflection information using shape ID for:
StorageSvc           INFO xAOD::EventAuxInfo_v3 [0D6FFB22-1BCB-49B9-BBFB-66B6DF352067]
StorageSvc           INFO Building shape according to reflection information using shape ID for:
StorageSvc           INFO DMTest::CLinksAuxInfo_v1 [461B9CC7-6BF4-4724-A567-1472D7DF630C]
StorageSvc           INFO Building shape according to reflection information using shape ID for:
StorageSvc           INFO DMTest::CLinksAuxContainer_v1 [5B64F00A-2E41-4733-BAE6-54F5DD0F03A6]
StorageSvc           INFO Building shape according to reflection information using shape ID for:
StorageSvc           INFO DMTest::PLinksAuxContainer_v1 [FE190B54-D9E7-4E92-8972-002CFD49E7B1]
StorageSvc           INFO Building shape according to reflection information using shape ID for:
StorageSvc           INFO DataVector<DMTest::C_v1> [10DE610D-5634-4D42-80D4-80B0A8C16452]
StorageSvc           INFO Building shape according to reflection information using shape ID for:
StorageSvc           INFO DMTest::CLinksAOD_p1 [BFCC15DB-706E-43BF-9297-F53CF5CAAD5B]
StorageSvc           INFO Building shape according to reflection information using shape ID for:
StorageSvc           INFO xAOD::EventInfo_v1 [AE8BED6D-1D41-4CAF-994B-42613FC91A0A]
StorageSvc           INFO Building shape according to reflection information using shape ID for:
StorageSvc           INFO DMTest::CLinks_v1 [FE56F278-739C-4B44-B5B5-BB33D3B352C6]
StorageSvc           INFO Building shape according to reflection information using shape ID for:
StorageSvc           INFO DataVector<DMTest::CLinks_v1> [4F9D2A5B-B88C-4511-8036-662A0E225326]
StorageSvc           INFO Building shape according to reflection information using shape ID for:
StorageSvc           INFO DataVector<DMTest::PLinks_v1> [85B77C8E-8491-41EB-8185-B5D982CBA3C1]
StorageSvc           INFO Building shape according to reflection information using shape ID for:
StorageSvc           INFO DataVector<DMTest::JVec_v1> [D80ED384-0C8C-11EF-A65E-E0C2649C5CE8]
StorageSvc           INFO Building shape according to reflection information using shape ID for:
StorageSvc           INFO DataHeader_p6 [4DDBD295-EFCE-472A-9EC8-15CD35A9EB8D]
StorageSvc           INFO Building shape according to reflection information using shape ID for:
StorageSvc           INFO DataHeaderForm_p6 [7BE56CEF-C866-4BEE-9348-A5F34B5F1DAD]
StorageSvc           INFO Building shape according to reflection information using shape ID for:
StorageSvc           INFO Token [E013D4B1-CA9C-4E3C-9BE2-8691BBAFCB9A]
StorageSvc           INFO Building shape according to reflection information using shape ID for:
StorageSvc           INFO bool [13FF06C5-AB4B-6EDD-68AB-3E6350E95305]
StorageSvc           INFO Building shape according to reflection information using shape ID for:
StorageSvc           INFO unsigned int [BBACA313-D7B0-3A4C-9161-089CACF4B1CC]
StorageSvc           INFO Building shape according to reflection information using shape ID for:
StorageSvc           INFO unsigned long long [388BE2E0-4452-7BB9-2563-DA3365C64623]
StorageSvc           INFO Building shape according to reflection information using shape ID for:
StorageSvc           INFO float [64DE6A54-6E0B-BCDF-8A08-6EF31347E768]
ClassIDSvc           INFO getRegistryEntries: read 158 CLIDRegistry entries for module ALL
AthenaEventLoopMgr   INFO   ===>>>  done processing event #1, run #0 1 events processed so far  <<<===
AthenaEventLoopMgr   INFO   ===>>>  start processing event #2, run #0 1 events processed so far  <<<===
AthenaEventLoopMgr   INFO   ===>>>  done processing event #2, run #0 2 events processed so far  <<<===
AthenaEventLoopMgr   INFO   ===>>>  start processing event #3, run #0 2 events processed so far  <<<===
AthenaEventLoopMgr   INFO   ===>>>  done processing event #3, run #0 3 events processed so far  <<<===
AthenaEventLoopMgr   INFO   ===>>>  start processing event #4, run #0 3 events processed so far  <<<===
AthenaEventLoopMgr   INFO   ===>>>  done processing event #4, run #0 4 events processed so far  <<<===
AthenaEventLoopMgr   INFO   ===>>>  start processing event #5, run #0 4 events processed so far  <<<===
AthenaEventLoopMgr   INFO   ===>>>  done processing event #5, run #0 5 events processed so far  <<<===
AthenaEventLoopMgr   INFO   ===>>>  start processing event #6, run #0 5 events processed so far  <<<===
AthenaEventLoopMgr   INFO   ===>>>  done processing event #6, run #0 6 events processed so far  <<<===
AthenaEventLoopMgr   INFO   ===>>>  start processing event #7, run #0 6 events processed so far  <<<===
AthenaEventLoopMgr   INFO   ===>>>  done processing event #7, run #0 7 events processed so far  <<<===
AthenaEventLoopMgr   INFO   ===>>>  start processing event #8, run #0 7 events processed so far  <<<===
AthenaEventLoopMgr   INFO   ===>>>  done processing event #8, run #0 8 events processed so far  <<<===
AthenaEventLoopMgr   INFO   ===>>>  start processing event #9, run #0 8 events processed so far  <<<===
AthenaEventLoopMgr   INFO   ===>>>  done processing event #9, run #0 9 events processed so far  <<<===
AthenaEventLoopMgr   INFO   ===>>>  start processing event #10, run #0 9 events processed so far  <<<===
AthenaEventLoopMgr   INFO   ===>>>  done processing event #10, run #0 10 events processed so far  <<<===
AthenaEventLoopMgr   INFO   ===>>>  start processing event #11, run #0 10 events processed so far  <<<===
AthenaEventLoopMgr   INFO   ===>>>  done processing event #11, run #0 11 events processed so far  <<<===
AthenaEventLoopMgr   INFO   ===>>>  start processing event #12, run #0 11 events processed so far  <<<===
AthenaEventLoopMgr   INFO   ===>>>  done processing event #12, run #0 12 events processed so far  <<<===
AthenaEventLoopMgr   INFO   ===>>>  start processing event #13, run #0 12 events processed so far  <<<===
AthenaEventLoopMgr   INFO   ===>>>  done processing event #13, run #0 13 events processed so far  <<<===
AthenaEventLoopMgr   INFO   ===>>>  start processing event #14, run #0 13 events processed so far  <<<===
AthenaEventLoopMgr   INFO   ===>>>  done processing event #14, run #0 14 events processed so far  <<<===
AthenaEventLoopMgr   INFO   ===>>>  start processing event #15, run #0 14 events processed so far  <<<===
AthenaEventLoopMgr   INFO   ===>>>  done processing event #15, run #0 15 events processed so far  <<<===
AthenaEventLoopMgr   INFO   ===>>>  start processing event #16, run #0 15 events processed so far  <<<===
AthenaEventLoopMgr   INFO   ===>>>  done processing event #16, run #0 16 events processed so far  <<<===
AthenaEventLoopMgr   INFO   ===>>>  start processing event #17, run #0 16 events processed so far  <<<===
AthenaEventLoopMgr   INFO   ===>>>  done processing event #17, run #0 17 events processed so far  <<<===
AthenaEventLoopMgr   INFO   ===>>>  start processing event #18, run #0 17 events processed so far  <<<===
AthenaEventLoopMgr   INFO   ===>>>  done processing event #18, run #0 18 events processed so far  <<<===
AthenaEventLoopMgr   INFO   ===>>>  start processing event #19, run #0 18 events processed so far  <<<===
AthenaEventLoopMgr   INFO   ===>>>  done processing event #19, run #0 19 events processed so far  <<<===
AthenaEventLoopMgr   INFO   ===>>>  start processing event #20, run #0 19 events processed so far  <<<===
AthenaEventLoopMgr   INFO   ===>>>  done processing event #20, run #0 20 events processed so far  <<<===
StorageSvc           INFO Building shape according to reflection information using shape ID for:
StorageSvc           INFO xAOD::EventFormat_v1 [0EFE2D2C-9E78-441D-9A87-9EE2B908AC81]
ClassIDSvc           INFO getRegistryEntries: read 7 CLIDRegistry entries for module ALL
StreamThinned1       INFO Metadata records written: 21
Domain[ROOT_All]     INFO >   Deaccess DbDomain     READ      [ROOT_All] 
xaodthinned...root   INFO Database being retired...
Domain[ROOT_All]     INFO ->  Deaccess DbDatabase   CREATE    [ROOT_All] 5604AD27-072C-0E4F-AF43-59156BD2ECA8
Domain[ROOT_All]     INFO >   Deaccess DbDomain     UPDATE    [ROOT_All] 
ApplicationMgr       INFO Application Manager Stopped successfully
LoadWriteDicts       INFO Finalizing LoadWriteDicts...
AthenaPoolCnvSvc     INFO PerfStats ----------------------------------------
AthenaPoolCnvSvc     INFO PerfStats Timing Measurements for AthenaPoolCnvSvc
AthenaPoolCnvSvc     INFO PerfStats ----------------------------------------
AthenaPoolCnvSvc     INFO PerfStats | commitOutput    |              20 ms |
AthenaPoolCnvSvc     INFO PerfStats | fRep_ALL        |             237 ms |
AthenaPoolCnvSvc     INFO PerfStats | cRepR_ALL       |             226 ms |
AthenaPoolCnvSvc     INFO PerfStats | cRep_ALL        |              45 ms |
AthenaPoolCnvSvc     INFO PerfStats ----------------------------------------
AthDictLoaderSvc     INFO in finalize...
DecisionSvc          INFO Finalized successfully.
PyComponentMgr       INFO Finalizing PyComponentMgr...
ToolSvc              INFO Removing all tools created by ToolSvc
ApplicationMgr       INFO Application Manager Finalized successfully
ApplicationMgr       INFO Application Manager Terminated successfully
Py:Athena            INFO leaving with code 0: "successful run"
